<svg width="24" height="24" viewBox="0 0 24 24" fill="none" xmlns="http://www.w3.org/2000/svg">
<path d="M19.0339 14.0693C16.2958 14.0693 14.0684 16.2968 14.0684 19.0349C14.0684 21.7729 16.2958 24.0004 19.0339 24.0004C21.7719 24.0004 23.9994 21.7729 23.9994 19.0349C23.9994 16.2968 21.7719 14.0693 19.0339 14.0693ZM19.0339 23.1728C16.7522 23.1728 14.8959 21.3165 14.8959 19.0349C14.8959 16.7532 16.7522 14.8969 19.0339 14.8969C21.3155 14.8969 23.1718 16.7532 23.1718 19.0349C23.1718 21.3165 21.3155 23.1728 19.0339 23.1728Z" fill="#1D4266"/>
<path d="M21.5176 18.6205H19.4487V16.5515C19.4487 16.3227 19.2637 16.1377 19.0349 16.1377C18.8061 16.1377 18.6211 16.3227 18.6211 16.5515V19.0342C18.6211 19.2631 18.8061 19.448 19.0349 19.448H21.5176C21.7465 19.448 21.9314 19.2631 21.9314 19.0342C21.9314 18.8054 21.7465 18.6205 21.5176 18.6205Z" fill="#1D4266"/>
<path d="M11.1723 8.68945H10.3448H7.44821H6.62062H2.89648V12.4136V13.2412V16.1377V16.9653V20.6895H6.62062H7.44821H11.1723V16.9653V16.1377V13.2412H14.0689H14.8965H18.6206V8.68945H14.8965H14.0689H11.1723ZM14.8965 9.51704H17.793V12.4136H14.8965V9.51704ZM7.44821 9.51704H10.3448V12.4136H7.44821V9.51704ZM3.72407 9.51704H6.62062V12.4136H3.72407V9.51704ZM3.72407 13.2412H6.62062V16.1377H3.72407V13.2412ZM6.62062 19.8619H3.72407V16.9653H6.62062V19.8619ZM10.3448 19.8619H7.44821V16.9653H10.3448V19.8619ZM10.3448 16.1377H7.44821V13.2412H10.3448V16.1377ZM14.0689 12.4136H11.1723V9.51704H14.0689V12.4136Z" fill="#1D4266"/>
<path d="M13.6552 22.7586H0.827586V6.62069H20.6897V12C20.6897 12.2288 20.8746 12.4138 21.1034 12.4138C21.3323 12.4138 21.5172 12.2288 21.5172 12V6.2069V2.06897C21.5172 1.84014 21.3323 1.65517 21.1034 1.65517H19.0345V0.413793C19.0345 0.184966 18.8495 0 18.6207 0H15.7241C15.4953 0 15.3103 0.184966 15.3103 0.413793V1.65517H6.2069V0.413793C6.2069 0.184966 6.02193 0 5.7931 0H2.89655C2.66772 0 2.48276 0.184966 2.48276 0.413793V1.65517H0.413793C0.184966 1.65517 0 1.84014 0 2.06897V6.2069V23.1724C0 23.4012 0.184966 23.5862 0.413793 23.5862H13.6552C13.884 23.5862 14.069 23.4012 14.069 23.1724C14.069 22.9436 13.884 22.7586 13.6552 22.7586ZM16.1379 0.827586H18.2069V2.06897V3.31034H16.1379V2.06897V0.827586ZM3.31034 0.827586H5.37931V2.06897V3.31034H3.31034V2.06897V0.827586ZM0.827586 2.48276H2.48276V3.72414C2.48276 3.95297 2.66772 4.13793 2.89655 4.13793H5.7931C6.02193 4.13793 6.2069 3.95297 6.2069 3.72414V2.48276H15.3103V3.72414C15.3103 3.95297 15.4953 4.13793 15.7241 4.13793H18.6207C18.8495 4.13793 19.0345 3.95297 19.0345 3.72414V2.48276H20.6897V5.7931H0.827586V2.48276Z" fill="#1D4266"/>
</svg>
