<svg width="24" height="24" viewBox="0 0 24 24" fill="none" xmlns="http://www.w3.org/2000/svg">
<path d="M15.5652 0H2.59961V24H21.3996V5.8344L15.5652 0ZM15.7996 1.3656L20.034 5.6H15.7996V1.3656ZM3.39961 23.2V0.8H14.9996V6.4H20.5996V23.2H3.39961Z" fill="#1D4266"/>
<path d="M16.9992 8.40039H10.5992C10.3784 8.40039 10.1992 8.57919 10.1992 8.80039C10.1992 9.02159 10.3784 9.20039 10.5992 9.20039H16.9992C17.22 9.20039 17.3992 9.02159 17.3992 8.80039C17.3992 8.57919 17.22 8.40039 16.9992 8.40039Z" fill="#1D4266"/>
<path d="M9.14932 7.287L7.42892 8.6634L6.88212 8.1166C6.72572 7.9602 6.47292 7.9602 6.31652 8.1166C6.16012 8.273 6.16012 8.5258 6.31652 8.6822L7.11652 9.4822C7.19412 9.5598 7.29652 9.5994 7.39932 9.5994C7.48732 9.5994 7.57572 9.5706 7.64892 9.5118L9.64892 7.9118C9.82172 7.7734 9.84932 7.5218 9.71132 7.3494C9.57372 7.1766 9.32172 7.149 9.14932 7.287Z" fill="#1D4266"/>
<path d="M16.9992 12.7998H10.5992C10.3784 12.7998 10.1992 12.9786 10.1992 13.1998C10.1992 13.421 10.3784 13.5998 10.5992 13.5998H16.9992C17.22 13.5998 17.3992 13.421 17.3992 13.1998C17.3992 12.9786 17.22 12.7998 16.9992 12.7998Z" fill="#1D4266"/>
<path d="M9.14932 11.6874L7.42892 13.0638L6.88212 12.517C6.72572 12.3606 6.47292 12.3606 6.31652 12.517C6.16012 12.6734 6.16012 12.9262 6.31652 13.0826L7.11652 13.8826C7.19412 13.9602 7.29652 13.9998 7.39932 13.9998C7.48732 13.9998 7.57572 13.971 7.64892 13.9122L9.64892 12.3122C9.82172 12.1738 9.84932 11.9222 9.71132 11.7498C9.57372 11.577 9.32172 11.5494 9.14932 11.6874Z" fill="#1D4266"/>
<path d="M16.9992 17.2002H10.5992C10.3784 17.2002 10.1992 17.379 10.1992 17.6002C10.1992 17.8214 10.3784 18.0002 10.5992 18.0002H16.9992C17.22 18.0002 17.3992 17.8214 17.3992 17.6002C17.3992 17.379 17.22 17.2002 16.9992 17.2002Z" fill="#1D4266"/>
<path d="M9.14932 16.0878L7.42892 17.4642L6.88212 16.9174C6.72572 16.761 6.47292 16.761 6.31652 16.9174C6.16012 17.0738 6.16012 17.3266 6.31652 17.483L7.11652 18.283C7.19412 18.3606 7.29652 18.4002 7.39932 18.4002C7.48732 18.4002 7.57572 18.3714 7.64892 18.3126L9.64892 16.7126C9.82172 16.5742 9.84932 16.3226 9.71132 16.1502C9.57372 15.9774 9.32172 15.9498 9.14932 16.0878Z" fill="#1D4266"/>
</svg>
