<svg width="16" height="20" viewBox="0 0 16 20" fill="none" xmlns="http://www.w3.org/2000/svg">
<path d="M14.5408 2.35498H11.8704V0.619709C11.8704 0.270424 11.5887 0 11.2394 0C11.2055 0 11.1829 0.0113139 11.1719 0.0226021C11.1606 0.0113139 11.138 0 11.1267 0H4.85064H4.80569H4.76048C4.41122 0 4.1408 0.270424 4.1408 0.619709V2.355H1.45914C0.692811 2.355 0.0957031 2.95211 0.0957031 3.71844V4.71001V5.9494H1.27884V18.6479C1.27884 19.4142 1.86466 20 2.63098 20H13.369C14.1353 20 14.7324 19.4142 14.7324 18.6479V5.9494H15.9042V4.71001V3.71844C15.9042 2.95211 15.3069 2.35498 14.5408 2.35498ZM5.3802 1.23939H10.6197V2.35498H5.3802V1.23939ZM13.4817 18.6479C13.4817 18.727 13.4478 18.7606 13.369 18.7606H2.63098C2.55215 18.7606 2.51826 18.7269 2.51826 18.6479V5.94938H13.4817V18.6479ZM14.6536 4.70998H1.34638V3.71841C1.34638 3.63955 1.38028 3.59437 1.45911 3.59437H14.5408C14.6197 3.59437 14.6536 3.63955 14.6536 3.71841V4.70998Z" fill="#333333"/>
<path d="M11.5212 7.40234H10.2705V17.6557H11.5212V7.40234Z" fill="#333333"/>
<path d="M8.63667 7.40234H7.38599V17.6557H8.63667V7.40234Z" fill="#333333"/>
<path d="M5.7519 7.40234H4.50122V17.6557H5.7519V7.40234Z" fill="#333333"/>
</svg>
