<svg width="24" height="24" viewBox="0 0 24 24" fill="none" xmlns="http://www.w3.org/2000/svg">
<path d="M24 0.749981C24 0.331475 23.6685 0 23.25 0H16.5112C16.0852 0 15.768 0.336026 15.7672 0.762013C15.7672 1.18725 16.0852 1.50002 16.5112 1.50002H22.5L22.4879 7.51726C22.4879 7.94325 22.8119 8.26724 23.2379 8.26724C23.6639 8.26649 23.9879 7.94325 23.9879 7.51726L23.9999 0.761265C23.9999 0.75902 23.9992 0.757524 23.9992 0.756028C23.9992 0.753721 24 0.752225 24 0.749981Z" fill="#333333"/>
<path d="M7.51202 0H0.773234C0.77099 0 0.769494 0.00074811 0.767249 0.00074811C0.765753 0.00074811 0.763509 0 0.762013 0C0.343507 0 0.0119698 0.331475 0.0119698 0.749981L0 7.50598C0 7.93196 0.336026 8.24997 0.762013 8.24997C1.18725 8.24997 1.50002 7.93196 1.50002 7.50598L1.51199 1.49996H7.51196C7.93795 1.49996 8.26194 1.17597 8.26194 0.749981C8.26126 0.323994 7.93726 0 7.51202 0Z" fill="#333333"/>
<path d="M7.48877 22.5H1.50002V16.5C1.50002 16.074 1.17603 15.75 0.750043 15.75C0.324056 15.75 0 16.0739 0 16.5V23.2387C0 23.241 0.00074811 23.2425 0.00074811 23.2439C0.00074811 23.2462 0 23.2477 0 23.2499C0 23.6684 0.331475 23.9999 0.749981 23.9999H7.48871C7.9147 23.9999 8.23196 23.6639 8.2327 23.2379C8.23277 22.8127 7.91476 22.5 7.48877 22.5Z" fill="#333333"/>
<path d="M23.238 15.7671C22.812 15.7671 22.4992 16.0851 22.4999 16.5111V22.4998H16.5C16.074 22.4998 15.75 22.8238 15.75 23.2498C15.75 23.6758 16.074 23.9998 16.5 23.9998H23.2387C23.241 23.9998 23.2424 23.999 23.2439 23.999C23.2462 23.9983 23.2477 23.9998 23.2499 23.9998C23.6684 23.9998 23.9999 23.6683 23.9999 23.2498V16.5111C24 16.0851 23.6639 15.7671 23.238 15.7671Z" fill="#333333"/>
</svg>
